[
  {
    "_id": "b8d33345-fdfc-4d02-bab8-c3522c7969b9",
    "colId": "history",
    "containerId": "",
    "name": "http://gateway.marvel.com/v1/public/comics?ts=1&apikey=8cd272b6f6881d5c362dc9ae8cde8344&hash=746690c0ee5392fc5f82a108fb1ebe5a",
    "url": "http://gateway.marvel.com/v1/public/comics?ts=1&apikey=8cd272b6f6881d5c362dc9ae8cde8344&hash=746690c0ee5392fc5f82a108fb1ebe5a",
    "method": "GET",
    "sortNum": 0,
    "created": "2023-03-09T15:26:13.294Z",
    "modified": "2023-03-09T15:26:13.294Z",
    "headers": [],
    "params": [
      {
        "name": "ts",
        "value": "1",
        "isPath": false
      },
      {
        "name": "apikey",
        "value": "8cd272b6f6881d5c362dc9ae8cde8344",
        "isPath": false
      },
      {
        "name": "hash",
        "value": "746690c0ee5392fc5f82a108fb1ebe5a",
        "isPath": false
      }
    ],
    "tests": []
  },
  {
    "_id": "64e63d32-8849-4674-a35b-ba85669d94af",
    "colId": "history",
    "containerId": "",
    "name": "http://gateway.marvel.com/v1/public/comics?ts=1&apikey=8cd272b6f6881d5c362dc9ae8cde8344&hash=52373a5bcd7dabcca80ce7fc16cacb9f",
    "url": "http://gateway.marvel.com/v1/public/comics?ts=1&apikey=8cd272b6f6881d5c362dc9ae8cde8344&hash=52373a5bcd7dabcca80ce7fc16cacb9f",
    "method": "GET",
    "sortNum": 0,
    "created": "2023-03-09T15:30:51.458Z",
    "modified": "2023-03-09T18:11:39.296Z",
    "headers": [],
    "params": [
      {
        "name": "ts",
        "value": "1",
        "isPath": false
      },
      {
        "name": "apikey",
        "value": "8cd272b6f6881d5c362dc9ae8cde8344",
        "isPath": false
      },
      {
        "name": "hash",
        "value": "52373a5bcd7dabcca80ce7fc16cacb9f",
        "isPath": false
      },
      {
        "name": "limit",
        "value": "100",
        "isDisabled": true,
        "isPath": false
      },
      {
        "name": "offset",
        "value": "0",
        "isDisabled": true,
        "isPath": false
      },
      {
        "name": "title",
        "value": "Sentry, the (Trade Paperback)",
        "isDisabled": true,
        "isPath": false
      },
      {
        "name": "id",
        "value": "82970",
        "isDisabled": true,
        "isPath": false
      },
      {
        "name": "pagecount",
        "value": "112",
        "isDisabled": true,
        "isPath": false
      }
    ],
    "body": {
      "type": "json",
      "raw": "{\n  \"limit\" : 10\n}",
      "form": []
    },
    "tests": []
  },
  {
    "_id": "7b6928c0-28ef-47d7-bded-9a23132c9de6",
    "colId": "history",
    "containerId": "",
    "name": "http://gateway.marvel.com/v1/public/comics/avengers?ts=1&apikey=8cd272b6f6881d5c362dc9ae8cde8344&hash=52373a5bcd7dabcca80ce7fc16cacb9f",
    "url": "http://gateway.marvel.com/v1/public/comics/avengers?ts=1&apikey=8cd272b6f6881d5c362dc9ae8cde8344&hash=52373a5bcd7dabcca80ce7fc16cacb9f",
    "method": "GET",
    "sortNum": 0,
    "created": "2023-03-09T15:32:27.497Z",
    "modified": "2023-03-09T15:32:27.497Z",
    "headers": [],
    "params": [
      {
        "name": "ts",
        "value": "1",
        "isPath": false
      },
      {
        "name": "apikey",
        "value": "8cd272b6f6881d5c362dc9ae8cde8344",
        "isPath": false
      },
      {
        "name": "hash",
        "value": "52373a5bcd7dabcca80ce7fc16cacb9f",
        "isPath": false
      }
    ],
    "tests": []
  },
  {
    "_id": "f4c24ef3-8daa-4d7e-9061-ca919e10c258",
    "colId": "history",
    "containerId": "",
    "name": "http://gateway.marvel.com/v1/public/comics/series?ts=1&apikey=8cd272b6f6881d5c362dc9ae8cde8344&hash=52373a5bcd7dabcca80ce7fc16cacb9f",
    "url": "http://gateway.marvel.com/v1/public/comics/series?ts=1&apikey=8cd272b6f6881d5c362dc9ae8cde8344&hash=52373a5bcd7dabcca80ce7fc16cacb9f",
    "method": "GET",
    "sortNum": 0,
    "created": "2023-03-09T15:33:24.500Z",
    "modified": "2023-03-09T15:33:24.500Z",
    "headers": [],
    "params": [
      {
        "name": "ts",
        "value": "1",
        "isPath": false
      },
      {
        "name": "apikey",
        "value": "8cd272b6f6881d5c362dc9ae8cde8344",
        "isPath": false
      },
      {
        "name": "hash",
        "value": "52373a5bcd7dabcca80ce7fc16cacb9f",
        "isPath": false
      }
    ],
    "tests": []
  },
  {
    "_id": "20bf53a1-5793-4f3a-b117-fc74740abadf",
    "colId": "history",
    "containerId": "",
    "name": "http://gateway.marvel.com/v1/public/comics?ts=1&apikey=8cd272b6f6881d5c362dc9ae8cde8344&hash=52373a5bcd7dabcca80ce7fc16cacb9f&limit=40",
    "url": "http://gateway.marvel.com/v1/public/comics?ts=1&apikey=8cd272b6f6881d5c362dc9ae8cde8344&hash=52373a5bcd7dabcca80ce7fc16cacb9f&limit=40",
    "method": "GET",
    "sortNum": 0,
    "created": "2023-03-09T17:55:49.128Z",
    "modified": "2023-03-09T17:55:49.128Z",
    "headers": [],
    "params": [
      {
        "name": "ts",
        "value": "1",
        "isPath": false
      },
      {
        "name": "apikey",
        "value": "8cd272b6f6881d5c362dc9ae8cde8344",
        "isPath": false
      },
      {
        "name": "hash",
        "value": "52373a5bcd7dabcca80ce7fc16cacb9f",
        "isPath": false
      },
      {
        "name": "limit",
        "value": "40",
        "isPath": false
      }
    ],
    "body": {
      "type": "json",
      "raw": "{\n  \"limit\" : 10\n}",
      "form": []
    },
    "tests": []
  },
  {
    "_id": "dc16b0e5-0502-4cee-9c17-398501602e31",
    "colId": "history",
    "containerId": "",
    "name": "http://gateway.marvel.com/v1/public/comics?ts=1&apikey=8cd272b6f6881d5c362dc9ae8cde8344&hash=52373a5bcd7dabcca80ce7fc16cacb9f&limit",
    "url": "http://gateway.marvel.com/v1/public/comics?ts=1&apikey=8cd272b6f6881d5c362dc9ae8cde8344&hash=52373a5bcd7dabcca80ce7fc16cacb9f&limit",
    "method": "GET",
    "sortNum": 0,
    "created": "2023-03-09T17:58:12.433Z",
    "modified": "2023-03-09T17:58:12.433Z",
    "headers": [],
    "params": [
      {
        "name": "ts",
        "value": "1",
        "isPath": false
      },
      {
        "name": "apikey",
        "value": "8cd272b6f6881d5c362dc9ae8cde8344",
        "isPath": false
      },
      {
        "name": "hash",
        "value": "52373a5bcd7dabcca80ce7fc16cacb9f",
        "isPath": false
      },
      {
        "name": "limit",
        "value": "",
        "isPath": false
      }
    ],
    "body": {
      "type": "json",
      "raw": "{\n  \"limit\" : 10\n}",
      "form": []
    },
    "tests": []
  },
  {
    "_id": "c3ce2de8-cdbd-4954-b5b1-27b7abe8ebe4",
    "colId": "history",
    "containerId": "",
    "name": "http://gateway.marvel.com/v1/public/comics?ts=1&apikey=8cd272b6f6881d5c362dc9ae8cde8344&hash=52373a5bcd7dabcca80ce7fc16cacb9f&limit=54290",
    "url": "http://gateway.marvel.com/v1/public/comics?ts=1&apikey=8cd272b6f6881d5c362dc9ae8cde8344&hash=52373a5bcd7dabcca80ce7fc16cacb9f&limit=54290",
    "method": "GET",
    "sortNum": 0,
    "created": "2023-03-09T17:58:16.768Z",
    "modified": "2023-03-09T17:58:16.768Z",
    "headers": [],
    "params": [
      {
        "name": "ts",
        "value": "1",
        "isPath": false
      },
      {
        "name": "apikey",
        "value": "8cd272b6f6881d5c362dc9ae8cde8344",
        "isPath": false
      },
      {
        "name": "hash",
        "value": "52373a5bcd7dabcca80ce7fc16cacb9f",
        "isPath": false
      },
      {
        "name": "limit",
        "value": "54290",
        "isPath": false
      }
    ],
    "body": {
      "type": "json",
      "raw": "{\n  \"limit\" : 10\n}",
      "form": []
    },
    "tests": []
  },
  {
    "_id": "90ab5f57-1194-4fe1-8ced-99f59dd66dfc",
    "colId": "history",
    "containerId": "",
    "name": "http://gateway.marvel.com/v1/public/comics?ts=1&apikey=8cd272b6f6881d5c362dc9ae8cde8344&hash=52373a5bcd7dabcca80ce7fc16cacb9f&limit=100",
    "url": "http://gateway.marvel.com/v1/public/comics?ts=1&apikey=8cd272b6f6881d5c362dc9ae8cde8344&hash=52373a5bcd7dabcca80ce7fc16cacb9f&limit=100",
    "method": "GET",
    "sortNum": 0,
    "created": "2023-03-09T17:58:43.871Z",
    "modified": "2023-03-09T17:58:43.871Z",
    "headers": [],
    "params": [
      {
        "name": "ts",
        "value": "1",
        "isPath": false
      },
      {
        "name": "apikey",
        "value": "8cd272b6f6881d5c362dc9ae8cde8344",
        "isPath": false
      },
      {
        "name": "hash",
        "value": "52373a5bcd7dabcca80ce7fc16cacb9f",
        "isPath": false
      },
      {
        "name": "limit",
        "value": "100",
        "isPath": false
      }
    ],
    "body": {
      "type": "json",
      "raw": "{\n  \"limit\" : 10\n}",
      "form": []
    },
    "tests": []
  },
  {
    "_id": "6ea1051b-e6cd-4eee-8465-1af29c933670",
    "colId": "history",
    "containerId": "",
    "name": "http://gateway.marvel.com/v1/public/comics?ts=1&apikey=8cd272b6f6881d5c362dc9ae8cde8344&hash=52373a5bcd7dabcca80ce7fc16cacb9f&limit=100&offset=100",
    "url": "http://gateway.marvel.com/v1/public/comics?ts=1&apikey=8cd272b6f6881d5c362dc9ae8cde8344&hash=52373a5bcd7dabcca80ce7fc16cacb9f&limit=100&offset=100",
    "method": "GET",
    "sortNum": 0,
    "created": "2023-03-09T17:59:22.011Z",
    "modified": "2023-03-09T17:59:22.011Z",
    "headers": [],
    "params": [
      {
        "name": "ts",
        "value": "1",
        "isPath": false
      },
      {
        "name": "apikey",
        "value": "8cd272b6f6881d5c362dc9ae8cde8344",
        "isPath": false
      },
      {
        "name": "hash",
        "value": "52373a5bcd7dabcca80ce7fc16cacb9f",
        "isPath": false
      },
      {
        "name": "limit",
        "value": "100",
        "isPath": false
      },
      {
        "name": "offset",
        "value": "100",
        "isPath": false
      }
    ],
    "body": {
      "type": "json",
      "raw": "{\n  \"limit\" : 10\n}",
      "form": []
    },
    "tests": []
  },
  {
    "_id": "61ac9dad-9976-44df-958a-7f664980a614",
    "colId": "history",
    "containerId": "",
    "name": "http://gateway.marvel.com/v1/public/comics?ts=1&apikey=8cd272b6f6881d5c362dc9ae8cde8344&hash=52373a5bcd7dabcca80ce7fc16cacb9f&limit=100&offset=100&title='Avengers%'",
    "url": "http://gateway.marvel.com/v1/public/comics?ts=1&apikey=8cd272b6f6881d5c362dc9ae8cde8344&hash=52373a5bcd7dabcca80ce7fc16cacb9f&limit=100&offset=100&title='Avengers%'",
    "method": "GET",
    "sortNum": 0,
    "created": "2023-03-09T18:05:03.018Z",
    "modified": "2023-03-09T18:05:03.018Z",
    "headers": [],
    "params": [
      {
        "name": "ts",
        "value": "1",
        "isPath": false
      },
      {
        "name": "apikey",
        "value": "8cd272b6f6881d5c362dc9ae8cde8344",
        "isPath": false
      },
      {
        "name": "hash",
        "value": "52373a5bcd7dabcca80ce7fc16cacb9f",
        "isPath": false
      },
      {
        "name": "limit",
        "value": "100",
        "isPath": false
      },
      {
        "name": "offset",
        "value": "100",
        "isPath": false
      },
      {
        "name": "title",
        "value": "'Avengers%'",
        "isPath": false
      }
    ],
    "body": {
      "type": "json",
      "raw": "{\n  \"limit\" : 10\n}",
      "form": []
    },
    "tests": []
  },
  {
    "_id": "c4edd2ca-cef0-4dc9-94aa-ece0406cbee2",
    "colId": "history",
    "containerId": "",
    "name": "http://gateway.marvel.com/v1/public/comics?ts=1&apikey=8cd272b6f6881d5c362dc9ae8cde8344&hash=52373a5bcd7dabcca80ce7fc16cacb9f&limit=100&offset=0&title='Avengers%'",
    "url": "http://gateway.marvel.com/v1/public/comics?ts=1&apikey=8cd272b6f6881d5c362dc9ae8cde8344&hash=52373a5bcd7dabcca80ce7fc16cacb9f&limit=100&offset=0&title='Avengers%'",
    "method": "GET",
    "sortNum": 0,
    "created": "2023-03-09T18:05:15.685Z",
    "modified": "2023-03-09T18:05:15.685Z",
    "headers": [],
    "params": [
      {
        "name": "ts",
        "value": "1",
        "isPath": false
      },
      {
        "name": "apikey",
        "value": "8cd272b6f6881d5c362dc9ae8cde8344",
        "isPath": false
      },
      {
        "name": "hash",
        "value": "52373a5bcd7dabcca80ce7fc16cacb9f",
        "isPath": false
      },
      {
        "name": "limit",
        "value": "100",
        "isPath": false
      },
      {
        "name": "offset",
        "value": "0",
        "isPath": false
      },
      {
        "name": "title",
        "value": "'Avengers%'",
        "isPath": false
      }
    ],
    "body": {
      "type": "json",
      "raw": "{\n  \"limit\" : 10\n}",
      "form": []
    },
    "tests": []
  },
  {
    "_id": "1c0fc00c-1559-4431-bf40-ab2f2361ec8d",
    "colId": "history",
    "containerId": "",
    "name": "http://gateway.marvel.com/v1/public/comics?ts=1&apikey=8cd272b6f6881d5c362dc9ae8cde8344&hash=52373a5bcd7dabcca80ce7fc16cacb9f&limit=100&offset=0&title=Avengers%",
    "url": "http://gateway.marvel.com/v1/public/comics?ts=1&apikey=8cd272b6f6881d5c362dc9ae8cde8344&hash=52373a5bcd7dabcca80ce7fc16cacb9f&limit=100&offset=0&title=Avengers%",
    "method": "GET",
    "sortNum": 0,
    "created": "2023-03-09T18:05:22.669Z",
    "modified": "2023-03-09T18:05:22.669Z",
    "headers": [],
    "params": [
      {
        "name": "ts",
        "value": "1",
        "isPath": false
      },
      {
        "name": "apikey",
        "value": "8cd272b6f6881d5c362dc9ae8cde8344",
        "isPath": false
      },
      {
        "name": "hash",
        "value": "52373a5bcd7dabcca80ce7fc16cacb9f",
        "isPath": false
      },
      {
        "name": "limit",
        "value": "100",
        "isPath": false
      },
      {
        "name": "offset",
        "value": "0",
        "isPath": false
      },
      {
        "name": "title",
        "value": "Avengers%",
        "isPath": false
      }
    ],
    "body": {
      "type": "json",
      "raw": "{\n  \"limit\" : 10\n}",
      "form": []
    },
    "tests": []
  },
  {
    "_id": "3b8100d0-9148-4ddf-ba18-a4cf87dec1ec",
    "colId": "history",
    "containerId": "",
    "name": "http://gateway.marvel.com/v1/public/comics?ts=1&apikey=8cd272b6f6881d5c362dc9ae8cde8344&hash=52373a5bcd7dabcca80ce7fc16cacb9f&limit=100&offset=0",
    "url": "http://gateway.marvel.com/v1/public/comics?ts=1&apikey=8cd272b6f6881d5c362dc9ae8cde8344&hash=52373a5bcd7dabcca80ce7fc16cacb9f&limit=100&offset=0",
    "method": "GET",
    "sortNum": 0,
    "created": "2023-03-09T18:05:35.705Z",
    "modified": "2023-03-09T18:05:57.540Z",
    "headers": [],
    "params": [
      {
        "name": "ts",
        "value": "1",
        "isPath": false
      },
      {
        "name": "apikey",
        "value": "8cd272b6f6881d5c362dc9ae8cde8344",
        "isPath": false
      },
      {
        "name": "hash",
        "value": "52373a5bcd7dabcca80ce7fc16cacb9f",
        "isPath": false
      },
      {
        "name": "limit",
        "value": "100",
        "isPath": false
      },
      {
        "name": "offset",
        "value": "0",
        "isPath": false
      },
      {
        "name": "title",
        "value": "Marvel%",
        "isDisabled": true,
        "isPath": false
      }
    ],
    "body": {
      "type": "json",
      "raw": "{\n  \"limit\" : 10\n}",
      "form": []
    },
    "tests": []
  },
  {
    "_id": "4cccf0ea-6a76-4457-8901-78f841ffc96b",
    "colId": "history",
    "containerId": "",
    "name": "http://gateway.marvel.com/v1/public/comics?ts=1&apikey=8cd272b6f6881d5c362dc9ae8cde8344&hash=52373a5bcd7dabcca80ce7fc16cacb9f&title=Sentry%",
    "url": "http://gateway.marvel.com/v1/public/comics?ts=1&apikey=8cd272b6f6881d5c362dc9ae8cde8344&hash=52373a5bcd7dabcca80ce7fc16cacb9f&title=Sentry%",
    "method": "GET",
    "sortNum": 0,
    "created": "2023-03-09T18:07:29.234Z",
    "modified": "2023-03-09T18:07:29.234Z",
    "headers": [],
    "params": [
      {
        "name": "ts",
        "value": "1",
        "isPath": false
      },
      {
        "name": "apikey",
        "value": "8cd272b6f6881d5c362dc9ae8cde8344",
        "isPath": false
      },
      {
        "name": "hash",
        "value": "52373a5bcd7dabcca80ce7fc16cacb9f",
        "isPath": false
      },
      {
        "name": "limit",
        "value": "100",
        "isDisabled": true,
        "isPath": false
      },
      {
        "name": "offset",
        "value": "0",
        "isDisabled": true,
        "isPath": false
      },
      {
        "name": "title",
        "value": "Sentry%",
        "isPath": false
      }
    ],
    "body": {
      "type": "json",
      "raw": "{\n  \"limit\" : 10\n}",
      "form": []
    },
    "tests": []
  },
  {
    "_id": "31462270-d301-4b01-8998-5a889a5a0061",
    "colId": "history",
    "containerId": "",
    "name": "http://gateway.marvel.com/v1/public/comics?ts=1&apikey=8cd272b6f6881d5c362dc9ae8cde8344&hash=52373a5bcd7dabcca80ce7fc16cacb9f&title=Sentry, the (Trade Paperback)",
    "url": "http://gateway.marvel.com/v1/public/comics?ts=1&apikey=8cd272b6f6881d5c362dc9ae8cde8344&hash=52373a5bcd7dabcca80ce7fc16cacb9f&title=Sentry, the (Trade Paperback)",
    "method": "GET",
    "sortNum": 0,
    "created": "2023-03-09T18:08:40.936Z",
    "modified": "2023-03-09T18:08:40.936Z",
    "headers": [],
    "params": [
      {
        "name": "ts",
        "value": "1",
        "isPath": false
      },
      {
        "name": "apikey",
        "value": "8cd272b6f6881d5c362dc9ae8cde8344",
        "isPath": false
      },
      {
        "name": "hash",
        "value": "52373a5bcd7dabcca80ce7fc16cacb9f",
        "isPath": false
      },
      {
        "name": "limit",
        "value": "100",
        "isDisabled": true,
        "isPath": false
      },
      {
        "name": "offset",
        "value": "0",
        "isDisabled": true,
        "isPath": false
      },
      {
        "name": "title",
        "value": "Sentry, the (Trade Paperback)",
        "isPath": false
      }
    ],
    "body": {
      "type": "json",
      "raw": "{\n  \"limit\" : 10\n}",
      "form": []
    },
    "tests": []
  },
  {
    "_id": "60249d32-fea1-45c9-a6eb-9b3c04b348bb",
    "colId": "history",
    "containerId": "",
    "name": "http://gateway.marvel.com/v1/public/comics?ts=1&apikey=8cd272b6f6881d5c362dc9ae8cde8344&hash=52373a5bcd7dabcca80ce7fc16cacb9f&id=82970",
    "url": "http://gateway.marvel.com/v1/public/comics?ts=1&apikey=8cd272b6f6881d5c362dc9ae8cde8344&hash=52373a5bcd7dabcca80ce7fc16cacb9f&id=82970",
    "method": "GET",
    "sortNum": 0,
    "created": "2023-03-09T18:10:06.526Z",
    "modified": "2023-03-09T18:10:06.526Z",
    "headers": [],
    "params": [
      {
        "name": "ts",
        "value": "1",
        "isPath": false
      },
      {
        "name": "apikey",
        "value": "8cd272b6f6881d5c362dc9ae8cde8344",
        "isPath": false
      },
      {
        "name": "hash",
        "value": "52373a5bcd7dabcca80ce7fc16cacb9f",
        "isPath": false
      },
      {
        "name": "limit",
        "value": "100",
        "isDisabled": true,
        "isPath": false
      },
      {
        "name": "offset",
        "value": "0",
        "isDisabled": true,
        "isPath": false
      },
      {
        "name": "title",
        "value": "Sentry, the (Trade Paperback)",
        "isDisabled": true,
        "isPath": false
      },
      {
        "name": "id",
        "value": "82970",
        "isPath": false
      }
    ],
    "body": {
      "type": "json",
      "raw": "{\n  \"limit\" : 10\n}",
      "form": []
    },
    "tests": []
  },
  {
    "_id": "a646ad9f-f19f-453c-9196-0f17c2716d78",
    "colId": "history",
    "containerId": "",
    "name": "http://gateway.marvel.com/v1/public/comics?ts=1&apikey=8cd272b6f6881d5c362dc9ae8cde8344&hash=52373a5bcd7dabcca80ce7fc16cacb9f&pageCount=112",
    "url": "http://gateway.marvel.com/v1/public/comics?ts=1&apikey=8cd272b6f6881d5c362dc9ae8cde8344&hash=52373a5bcd7dabcca80ce7fc16cacb9f&pageCount=112",
    "method": "GET",
    "sortNum": 0,
    "created": "2023-03-09T18:11:27.215Z",
    "modified": "2023-03-09T18:11:27.215Z",
    "headers": [],
    "params": [
      {
        "name": "ts",
        "value": "1",
        "isPath": false
      },
      {
        "name": "apikey",
        "value": "8cd272b6f6881d5c362dc9ae8cde8344",
        "isPath": false
      },
      {
        "name": "hash",
        "value": "52373a5bcd7dabcca80ce7fc16cacb9f",
        "isPath": false
      },
      {
        "name": "limit",
        "value": "100",
        "isDisabled": true,
        "isPath": false
      },
      {
        "name": "offset",
        "value": "0",
        "isDisabled": true,
        "isPath": false
      },
      {
        "name": "title",
        "value": "Sentry, the (Trade Paperback)",
        "isDisabled": true,
        "isPath": false
      },
      {
        "name": "id",
        "value": "82970",
        "isDisabled": true,
        "isPath": false
      },
      {
        "name": "pageCount",
        "value": "112",
        "isPath": false
      }
    ],
    "body": {
      "type": "json",
      "raw": "{\n  \"limit\" : 10\n}",
      "form": []
    },
    "tests": []
  },
  {
    "_id": "749a5cc5-ead2-4b3d-8063-88a8c4feef3a",
    "colId": "history",
    "containerId": "",
    "name": "http://gateway.marvel.com/v1/public/comics?ts=1&apikey=8cd272b6f6881d5c362dc9ae8cde8344&hash=52373a5bcd7dabcca80ce7fc16cacb9f&pagecount=112",
    "url": "http://gateway.marvel.com/v1/public/comics?ts=1&apikey=8cd272b6f6881d5c362dc9ae8cde8344&hash=52373a5bcd7dabcca80ce7fc16cacb9f&pagecount=112",
    "method": "GET",
    "sortNum": 0,
    "created": "2023-03-09T18:11:34.608Z",
    "modified": "2023-03-09T18:11:34.608Z",
    "headers": [],
    "params": [
      {
        "name": "ts",
        "value": "1",
        "isPath": false
      },
      {
        "name": "apikey",
        "value": "8cd272b6f6881d5c362dc9ae8cde8344",
        "isPath": false
      },
      {
        "name": "hash",
        "value": "52373a5bcd7dabcca80ce7fc16cacb9f",
        "isPath": false
      },
      {
        "name": "limit",
        "value": "100",
        "isDisabled": true,
        "isPath": false
      },
      {
        "name": "offset",
        "value": "0",
        "isDisabled": true,
        "isPath": false
      },
      {
        "name": "title",
        "value": "Sentry, the (Trade Paperback)",
        "isDisabled": true,
        "isPath": false
      },
      {
        "name": "id",
        "value": "82970",
        "isDisabled": true,
        "isPath": false
      },
      {
        "name": "pagecount",
        "value": "112",
        "isPath": false
      }
    ],
    "body": {
      "type": "json",
      "raw": "{\n  \"limit\" : 10\n}",
      "form": []
    },
    "tests": []
  },
  {
    "_id": "8b3b0634-4a57-45aa-883a-a3ac394741ee",
    "colId": "history",
    "containerId": "",
    "name": "http://gateway.marvel.com/v1/public/comics?ts=1&apikey=8cd272b6f6881d5c362dc9ae8cde8344&hash=52373a5bcd7dabcca80ce7fc16cacb9f&title=\"Marvel Previews (2017)\"",
    "url": "http://gateway.marvel.com/v1/public/comics?ts=1&apikey=8cd272b6f6881d5c362dc9ae8cde8344&hash=52373a5bcd7dabcca80ce7fc16cacb9f&title=\"Marvel Previews (2017)\"",
    "method": "GET",
    "sortNum": 0,
    "created": "2023-03-09T18:11:55.282Z",
    "modified": "2023-03-09T18:11:55.282Z",
    "headers": [],
    "params": [
      {
        "name": "ts",
        "value": "1",
        "isPath": false
      },
      {
        "name": "apikey",
        "value": "8cd272b6f6881d5c362dc9ae8cde8344",
        "isPath": false
      },
      {
        "name": "hash",
        "value": "52373a5bcd7dabcca80ce7fc16cacb9f",
        "isPath": false
      },
      {
        "name": "limit",
        "value": "100",
        "isDisabled": true,
        "isPath": false
      },
      {
        "name": "offset",
        "value": "0",
        "isDisabled": true,
        "isPath": false
      },
      {
        "name": "title",
        "value": "\"Marvel Previews (2017)\"",
        "isPath": false
      },
      {
        "name": "id",
        "value": "82970",
        "isDisabled": true,
        "isPath": false
      },
      {
        "name": "pagecount",
        "value": "112",
        "isDisabled": true,
        "isPath": false
      }
    ],
    "body": {
      "type": "json",
      "raw": "{\n  \"limit\" : 10\n}",
      "form": []
    },
    "tests": []
  },
  {
    "_id": "aec9678e-be2c-4ec1-b885-74c73df5cd58",
    "colId": "history",
    "containerId": "",
    "name": "http://gateway.marvel.com/v1/public/comics?ts=1&apikey=8cd272b6f6881d5c362dc9ae8cde8344&hash=52373a5bcd7dabcca80ce7fc16cacb9f&title=\"Marvel Previews (2017)\"&titleStartsWith\t=A",
    "url": "http://gateway.marvel.com/v1/public/comics?ts=1&apikey=8cd272b6f6881d5c362dc9ae8cde8344&hash=52373a5bcd7dabcca80ce7fc16cacb9f&title=\"Marvel Previews (2017)\"&titleStartsWith\t=A",
    "method": "GET",
    "sortNum": 0,
    "created": "2023-03-09T18:13:07.621Z",
    "modified": "2023-03-09T18:13:07.621Z",
    "headers": [],
    "params": [
      {
        "name": "ts",
        "value": "1",
        "isPath": false
      },
      {
        "name": "apikey",
        "value": "8cd272b6f6881d5c362dc9ae8cde8344",
        "isPath": false
      },
      {
        "name": "hash",
        "value": "52373a5bcd7dabcca80ce7fc16cacb9f",
        "isPath": false
      },
      {
        "name": "limit",
        "value": "100",
        "isDisabled": true,
        "isPath": false
      },
      {
        "name": "offset",
        "value": "0",
        "isDisabled": true,
        "isPath": false
      },
      {
        "name": "title",
        "value": "\"Marvel Previews (2017)\"",
        "isPath": false
      },
      {
        "name": "id",
        "value": "82970",
        "isDisabled": true,
        "isPath": false
      },
      {
        "name": "pagecount",
        "value": "112",
        "isDisabled": true,
        "isPath": false
      },
      {
        "name": "titleStartsWith\t",
        "value": "A",
        "isPath": false
      }
    ],
    "body": {
      "type": "json",
      "raw": "{\n  \"limit\" : 10\n}",
      "form": []
    },
    "tests": []
  },
  {
    "_id": "7e3ce63d-75ec-4f4d-a9b2-e3c1c596ece2",
    "colId": "history",
    "containerId": "",
    "name": "http://gateway.marvel.com/v1/public/comics?ts=1&apikey=8cd272b6f6881d5c362dc9ae8cde8344&hash=52373a5bcd7dabcca80ce7fc16cacb9f&titleStartsWith\t=A",
    "url": "http://gateway.marvel.com/v1/public/comics?ts=1&apikey=8cd272b6f6881d5c362dc9ae8cde8344&hash=52373a5bcd7dabcca80ce7fc16cacb9f&titleStartsWith\t=A",
    "method": "GET",
    "sortNum": 0,
    "created": "2023-03-09T18:13:11.014Z",
    "modified": "2023-03-09T18:13:11.014Z",
    "headers": [],
    "params": [
      {
        "name": "ts",
        "value": "1",
        "isPath": false
      },
      {
        "name": "apikey",
        "value": "8cd272b6f6881d5c362dc9ae8cde8344",
        "isPath": false
      },
      {
        "name": "hash",
        "value": "52373a5bcd7dabcca80ce7fc16cacb9f",
        "isPath": false
      },
      {
        "name": "limit",
        "value": "100",
        "isDisabled": true,
        "isPath": false
      },
      {
        "name": "offset",
        "value": "0",
        "isDisabled": true,
        "isPath": false
      },
      {
        "name": "title",
        "value": "\"Marvel Previews (2017)\"",
        "isDisabled": true,
        "isPath": false
      },
      {
        "name": "id",
        "value": "82970",
        "isDisabled": true,
        "isPath": false
      },
      {
        "name": "pagecount",
        "value": "112",
        "isDisabled": true,
        "isPath": false
      },
      {
        "name": "titleStartsWith\t",
        "value": "A",
        "isPath": false
      }
    ],
    "body": {
      "type": "json",
      "raw": "{\n  \"limit\" : 10\n}",
      "form": []
    },
    "tests": []
  },
  {
    "_id": "60fc7b32-462d-44af-9807-cc95610e1255",
    "colId": "history",
    "containerId": "",
    "name": "http://gateway.marvel.com/v1/public/comics?ts=1&apikey=8cd272b6f6881d5c362dc9ae8cde8344&hash=52373a5bcd7dabcca80ce7fc16cacb9f&titleStartsWith=M",
    "url": "http://gateway.marvel.com/v1/public/comics?ts=1&apikey=8cd272b6f6881d5c362dc9ae8cde8344&hash=52373a5bcd7dabcca80ce7fc16cacb9f&titleStartsWith=M",
    "method": "GET",
    "sortNum": 0,
    "created": "2023-03-09T18:14:08.130Z",
    "modified": "2023-03-09T18:14:08.130Z",
    "headers": [],
    "params": [
      {
        "name": "ts",
        "value": "1",
        "isPath": false
      },
      {
        "name": "apikey",
        "value": "8cd272b6f6881d5c362dc9ae8cde8344",
        "isPath": false
      },
      {
        "name": "hash",
        "value": "52373a5bcd7dabcca80ce7fc16cacb9f",
        "isPath": false
      },
      {
        "name": "limit",
        "value": "100",
        "isDisabled": true,
        "isPath": false
      },
      {
        "name": "offset",
        "value": "0",
        "isDisabled": true,
        "isPath": false
      },
      {
        "name": "title",
        "value": "\"Marvel Previews (2017)\"",
        "isDisabled": true,
        "isPath": false
      },
      {
        "name": "id",
        "value": "82970",
        "isDisabled": true,
        "isPath": false
      },
      {
        "name": "pagecount",
        "value": "112",
        "isDisabled": true,
        "isPath": false
      },
      {
        "name": "titleStartsWith",
        "value": "M",
        "isPath": false
      }
    ],
    "body": {
      "type": "json",
      "raw": "{\n  \"limit\" : 10\n}",
      "form": []
    },
    "tests": []
  },
  {
    "_id": "9a8c44a5-7c01-42f5-ae02-b413899dd065",
    "colId": "history",
    "containerId": "",
    "name": "http://gateway.marvel.com/v1/public/comics?ts=1&apikey=8cd272b6f6881d5c362dc9ae8cde8344&hash=52373a5bcd7dabcca80ce7fc16cacb9f&titleStartsWith=Avengers",
    "url": "http://gateway.marvel.com/v1/public/comics?ts=1&apikey=8cd272b6f6881d5c362dc9ae8cde8344&hash=52373a5bcd7dabcca80ce7fc16cacb9f&titleStartsWith=Avengers",
    "method": "GET",
    "sortNum": 0,
    "created": "2023-03-09T18:14:33.798Z",
    "modified": "2023-03-09T18:14:33.798Z",
    "headers": [],
    "params": [
      {
        "name": "ts",
        "value": "1",
        "isPath": false
      },
      {
        "name": "apikey",
        "value": "8cd272b6f6881d5c362dc9ae8cde8344",
        "isPath": false
      },
      {
        "name": "hash",
        "value": "52373a5bcd7dabcca80ce7fc16cacb9f",
        "isPath": false
      },
      {
        "name": "limit",
        "value": "100",
        "isDisabled": true,
        "isPath": false
      },
      {
        "name": "offset",
        "value": "0",
        "isDisabled": true,
        "isPath": false
      },
      {
        "name": "title",
        "value": "\"Marvel Previews (2017)\"",
        "isDisabled": true,
        "isPath": false
      },
      {
        "name": "id",
        "value": "82970",
        "isDisabled": true,
        "isPath": false
      },
      {
        "name": "pagecount",
        "value": "112",
        "isDisabled": true,
        "isPath": false
      },
      {
        "name": "titleStartsWith",
        "value": "Avengers",
        "isPath": false
      }
    ],
    "body": {
      "type": "json",
      "raw": "{\n  \"limit\" : 10\n}",
      "form": []
    },
    "tests": []
  },
  {
    "_id": "5c798cfb-7bcd-4576-b5d0-702684d8722c",
    "colId": "history",
    "containerId": "",
    "name": "http://gateway.marvel.com/v1/public/comics?ts=1&apikey=8cd272b6f6881d5c362dc9ae8cde8344&hash=52373a5bcd7dabcca80ce7fc16cacb9f&titleStartsWith=Avengers&orderBy=onsaleDate&limit=50",
    "url": "http://gateway.marvel.com/v1/public/comics?ts=1&apikey=8cd272b6f6881d5c362dc9ae8cde8344&hash=52373a5bcd7dabcca80ce7fc16cacb9f&titleStartsWith=Avengers&orderBy=onsaleDate&limit=50",
    "method": "GET",
    "sortNum": 0,
    "created": "2023-03-09T18:17:30.540Z",
    "modified": "2023-03-09T18:17:30.540Z",
    "headers": [],
    "params": [
      {
        "name": "limit",
        "value": "100",
        "isDisabled": true,
        "isPath": false
      },
      {
        "name": "offset",
        "value": "0",
        "isDisabled": true,
        "isPath": false
      },
      {
        "name": "title",
        "value": "\"Marvel Previews (2017)\"",
        "isDisabled": true,
        "isPath": false
      },
      {
        "name": "id",
        "value": "82970",
        "isDisabled": true,
        "isPath": false
      },
      {
        "name": "pagecount",
        "value": "112",
        "isDisabled": true,
        "isPath": false
      },
      {
        "name": "ts",
        "value": "1",
        "isPath": false
      },
      {
        "name": "apikey",
        "value": "8cd272b6f6881d5c362dc9ae8cde8344",
        "isPath": false
      },
      {
        "name": "hash",
        "value": "52373a5bcd7dabcca80ce7fc16cacb9f",
        "isPath": false
      },
      {
        "name": "titleStartsWith",
        "value": "Avengers",
        "isPath": false
      },
      {
        "name": "orderBy",
        "value": "onsaleDate",
        "isPath": false
      },
      {
        "name": "limit",
        "value": "50",
        "isPath": false
      }
    ],
    "body": {
      "type": "json",
      "raw": "{\n  \"limit\" : 10\n}",
      "form": []
    },
    "tests": []
  },
  {
    "_id": "ac9bbf01-aafd-415c-baf5-15d9dae47094",
    "colId": "history",
    "containerId": "",
    "name": "http://gateway.marvel.com/v1/public/comics/6951/characters?ts=1&apikey=8cd272b6f6881d5c362dc9ae8cde8344&hash=52373a5bcd7dabcca80ce7fc16cacb9f",
    "url": "http://gateway.marvel.com/v1/public/comics/6951/characters?ts=1&apikey=8cd272b6f6881d5c362dc9ae8cde8344&hash=52373a5bcd7dabcca80ce7fc16cacb9f",
    "method": "GET",
    "sortNum": 0,
    "created": "2023-03-09T19:49:53.011Z",
    "modified": "2023-03-13T20:05:31.605Z",
    "headers": [],
    "params": [
      {
        "name": "ts",
        "value": "1",
        "isPath": false
      },
      {
        "name": "apikey",
        "value": "8cd272b6f6881d5c362dc9ae8cde8344",
        "isPath": false
      },
      {
        "name": "hash",
        "value": "52373a5bcd7dabcca80ce7fc16cacb9f",
        "isPath": false
      }
    ],
    "tests": []
  },
  {
    "_id": "27a98c62-4f18-43f9-a81a-ed5a031de05d",
    "colId": "history",
    "containerId": "",
    "name": " 'http://gateway.marvel.com/v1/public/comics/6955/characters?ts=1&apikey=8cd272b6f6881d5c362dc9ae8cde8344&hash=52373a5bcd7dabcca80ce7fc16cacb9f'",
    "url": " 'http://gateway.marvel.com/v1/public/comics/6955/characters?ts=1&apikey=8cd272b6f6881d5c362dc9ae8cde8344&hash=52373a5bcd7dabcca80ce7fc16cacb9f'",
    "method": "GET",
    "sortNum": 0,
    "created": "2023-03-13T16:22:16.406Z",
    "modified": "2023-03-13T16:22:16.406Z",
    "headers": [],
    "params": [
      {
        "name": "ts",
        "value": "1",
        "isPath": false
      },
      {
        "name": "apikey",
        "value": "8cd272b6f6881d5c362dc9ae8cde8344",
        "isPath": false
      },
      {
        "name": "hash",
        "value": "52373a5bcd7dabcca80ce7fc16cacb9f'",
        "isPath": false
      }
    ],
    "tests": []
  },
  {
    "_id": "ac3ac451-7895-4ab6-a58a-e8dd3a5dc389",
    "colId": "history",
    "containerId": "",
    "name": " http://gateway.marvel.com/v1/public/comics/6955/characters?ts=1&apikey=8cd272b6f6881d5c362dc9ae8cde8344&hash=52373a5bcd7dabcca80ce7fc16cacb9f",
    "url": " http://gateway.marvel.com/v1/public/comics/6955/characters?ts=1&apikey=8cd272b6f6881d5c362dc9ae8cde8344&hash=52373a5bcd7dabcca80ce7fc16cacb9f",
    "method": "GET",
    "sortNum": 0,
    "created": "2023-03-13T16:22:23.414Z",
    "modified": "2023-03-13T16:22:23.414Z",
    "headers": [],
    "params": [
      {
        "name": "ts",
        "value": "1",
        "isPath": false
      },
      {
        "name": "apikey",
        "value": "8cd272b6f6881d5c362dc9ae8cde8344",
        "isPath": false
      },
      {
        "name": "hash",
        "value": "52373a5bcd7dabcca80ce7fc16cacb9f",
        "isPath": false
      }
    ],
    "tests": []
  },
  {
    "_id": "a9a5fa6f-f613-4bf8-ae15-3e658896d4b9",
    "colId": "history",
    "containerId": "",
    "name": "http://gateway.marvel.com/v1/public/comics/'.$id.'/characters?ts=1&apikey=8cd272b6f6881d5c362dc9ae8cde8344&hash=52373a5bcd7dabcca80ce7fc16cacb9f",
    "url": "http://gateway.marvel.com/v1/public/comics/'.$id.'/characters?ts=1&apikey=8cd272b6f6881d5c362dc9ae8cde8344&hash=52373a5bcd7dabcca80ce7fc16cacb9f",
    "method": "GET",
    "sortNum": 0,
    "created": "2023-03-13T20:04:14.216Z",
    "modified": "2023-03-13T20:04:14.216Z",
    "headers": [],
    "params": [
      {
        "name": "ts",
        "value": "1",
        "isPath": false
      },
      {
        "name": "apikey",
        "value": "8cd272b6f6881d5c362dc9ae8cde8344",
        "isPath": false
      },
      {
        "name": "hash",
        "value": "52373a5bcd7dabcca80ce7fc16cacb9f",
        "isPath": false
      }
    ],
    "tests": []
  },
  {
    "_id": "2b572538-d449-419d-9b94-a650532cd1c3",
    "colId": "history",
    "containerId": "",
    "name": "https://gateway.marvel.com:443/v1/public/comics/6951?apikey=8cd272b6f6881d5c362dc9ae8cde8344&hash=52373a5bcd7dabcca80ce7fc16cacb9f",
    "url": "https://gateway.marvel.com:443/v1/public/comics/6951?apikey=8cd272b6f6881d5c362dc9ae8cde8344&hash=52373a5bcd7dabcca80ce7fc16cacb9f",
    "method": "GET",
    "sortNum": 0,
    "created": "2023-03-13T20:13:36.821Z",
    "modified": "2023-03-13T20:13:36.821Z",
    "headers": [],
    "params": [
      {
        "name": "apikey",
        "value": "8cd272b6f6881d5c362dc9ae8cde8344",
        "isPath": false
      },
      {
        "name": "hash",
        "value": "52373a5bcd7dabcca80ce7fc16cacb9f",
        "isPath": false
      }
    ],
    "tests": []
  },
  {
    "_id": "a1b24704-26cf-4664-afc3-31cdf4ed1c12",
    "colId": "history",
    "containerId": "",
    "name": "https://gateway.marvel.com:443/v1/public/comics/6951?ts=1&apikey=8cd272b6f6881d5c362dc9ae8cde8344&hash=52373a5bcd7dabcca80ce7fc16cacb9f",
    "url": "https://gateway.marvel.com:443/v1/public/comics/6951?ts=1&apikey=8cd272b6f6881d5c362dc9ae8cde8344&hash=52373a5bcd7dabcca80ce7fc16cacb9f",
    "method": "GET",
    "sortNum": 0,
    "created": "2023-03-13T20:14:48.980Z",
    "modified": "2023-03-13T20:14:48.980Z",
    "headers": [],
    "params": [
      {
        "name": "ts",
        "value": "1",
        "isPath": false
      },
      {
        "name": "apikey",
        "value": "8cd272b6f6881d5c362dc9ae8cde8344",
        "isPath": false
      },
      {
        "name": "hash",
        "value": "52373a5bcd7dabcca80ce7fc16cacb9f",
        "isPath": false
      }
    ],
    "tests": []
  }
]